EESchema Schematic File Version 2
LIBS:power
LIBS:device
LIBS:transistors
LIBS:conn
LIBS:linear
LIBS:regul
LIBS:74xx
LIBS:cmos4000
LIBS:adc-dac
LIBS:memory
LIBS:xilinx
LIBS:microcontrollers
LIBS:dsp
LIBS:microchip
LIBS:analog_switches
LIBS:motorola
LIBS:texas
LIBS:intel
LIBS:audio
LIBS:interface
LIBS:digital-audio
LIBS:philips
LIBS:display
LIBS:cypress
LIBS:siliconi
LIBS:opto
LIBS:atmel
LIBS:contrib
LIBS:valves
EELAYER 25 0
EELAYER END
$Descr A 11000 8500
encoding utf-8
Sheet 1 1
Title "Slow Starter"
Date "2017-07-28"
Rev "A0"
Comp "Sean Watson"
Comment1 ""
Comment2 ""
Comment3 ""
Comment4 ""
$EndDescr
$Comp
L GND #PWR01
U 1 1 598B5105
P 5250 4850
F 0 "#PWR01" H 5250 4600 50  0001 C CNN
F 1 "GND" H 5250 4700 50  0000 C CNN
F 2 "" H 5250 4850 50  0000 C CNN
F 3 "" H 5250 4850 50  0000 C CNN
	1    5250 4850
	1    0    0    -1  
$EndComp
$Comp
L Q_NMOS_GDS Q1
U 1 1 598B5119
P 6050 4600
F 0 "Q1" H 6350 4650 50  0000 R CNN
F 1 "FQP30N06" H 6650 4550 50  0000 R CNN
F 2 "TO_SOT_Packages_THT:TO-220_Neutral123_Horizontal" H 6250 4700 50  0001 C CNN
F 3 "" H 6050 4600 50  0000 C CNN
	1    6050 4600
	0    1    1    0   
$EndComp
Text Notes 6100 5150 0    30   ~ 0
30A 60V 79W\n40mOhmRdson\n30A @ 20C\n20A @ 100C
$Comp
L ZENER D1
U 1 1 598B5215
P 5650 4350
F 0 "D1" H 5650 4450 50  0000 C CNN
F 1 "1N4743A" H 5650 4250 50  0000 C CNN
F 2 "Diodes_ThroughHole:Diode_DO-35_SOD27_Horizontal_RM10" H 5650 4350 50  0001 C CNN
F 3 "" H 5650 4350 50  0000 C CNN
	1    5650 4350
	0    1    1    0   
$EndComp
$Comp
L CP1 C1
U 1 1 598B52D3
P 5250 4350
F 0 "C1" H 5275 4450 50  0000 L CNN
F 1 "2.2u" H 5275 4250 50  0000 L CNN
F 2 "Capacitors_ThroughHole:C_Radial_D5_L11_P2" H 5250 4350 50  0001 C CNN
F 3 "" H 5250 4350 50  0000 C CNN
	1    5250 4350
	-1   0    0    -1  
$EndComp
$Comp
L R R1
U 1 1 598B536B
P 5250 3450
F 0 "R1" H 5150 3500 50  0000 C CNN
F 1 "100k" H 5100 3400 50  0000 C CNN
F 2 "slow-starter:Resistor_Horizontal_RM10mm" V 5180 3450 50  0001 C CNN
F 3 "" H 5250 3450 50  0000 C CNN
	1    5250 3450
	1    0    0    -1  
$EndComp
Wire Wire Line
	5250 4500 5250 4850
Wire Wire Line
	4700 4700 5850 4700
Connection ~ 5250 4700
Connection ~ 5650 4700
Wire Wire Line
	5250 3600 5250 4200
Wire Wire Line
	5250 3950 6050 3950
Wire Wire Line
	6050 3950 6050 4400
Connection ~ 5650 3950
Wire Wire Line
	5650 4150 5650 3950
Wire Wire Line
	5650 4700 5650 4550
Connection ~ 5250 3950
Wire Wire Line
	5250 2800 5250 3300
Wire Wire Line
	4700 3000 6500 3000
Connection ~ 5250 3000
Wire Wire Line
	6250 4700 6500 4700
$Comp
L CONN_01X02 P1
U 1 1 598B5737
P 3700 3850
F 0 "P1" H 3700 4000 50  0000 C CNN
F 1 "XT60" V 3800 3850 50  0000 C CNN
F 2 "slow-starter:XT60" H 3700 3850 50  0001 C CNN
F 3 "" H 3700 3850 50  0000 C CNN
	1    3700 3850
	-1   0    0    1   
$EndComp
Wire Wire Line
	4700 3000 4700 3800
Wire Wire Line
	4700 3800 3900 3800
Wire Wire Line
	4700 4700 4700 3900
Wire Wire Line
	4700 3900 3900 3900
$Comp
L CONN_01X02 P2
U 1 1 598B58EA
P 7200 3850
F 0 "P2" H 7200 4000 50  0000 C CNN
F 1 "XT60" V 7300 3850 50  0000 C CNN
F 2 "slow-starter:XT60" H 7200 3850 50  0001 C CNN
F 3 "" H 7200 3850 50  0000 C CNN
	1    7200 3850
	1    0    0    1   
$EndComp
Wire Wire Line
	6500 4700 6500 3900
Wire Wire Line
	6500 3900 7000 3900
Wire Wire Line
	7000 3800 6500 3800
Wire Wire Line
	6500 3800 6500 3000
$Comp
L +BATT #PWR02
U 1 1 598B5A56
P 5250 2800
F 0 "#PWR02" H 5250 2650 50  0001 C CNN
F 1 "+BATT" H 5250 2940 50  0000 C CNN
F 2 "" H 5250 2800 50  0000 C CNN
F 3 "" H 5250 2800 50  0000 C CNN
	1    5250 2800
	1    0    0    -1  
$EndComp
Text Notes 4900 4350 0    30   ~ 0
63V rated
Text Notes 5200 3300 2    30   ~ 0
5% 1/4W
Text Notes 5700 4200 0    30   ~ 0
13V
Text Notes 3550 3600 0    30   ~ 0
Max. Input Voltage: 45V\nMax. Input Current: 25A
$Comp
L +BATT #PWR03
U 1 1 598B6560
P 9300 6000
F 0 "#PWR03" H 9300 5850 50  0001 C CNN
F 1 "+BATT" H 9300 6140 50  0000 C CNN
F 2 "" H 9300 6000 50  0000 C CNN
F 3 "" H 9300 6000 50  0000 C CNN
	1    9300 6000
	1    0    0    -1  
$EndComp
$Comp
L GND #PWR04
U 1 1 598B65AD
P 9700 6200
F 0 "#PWR04" H 9700 5950 50  0001 C CNN
F 1 "GND" H 9700 6050 50  0000 C CNN
F 2 "" H 9700 6200 50  0000 C CNN
F 3 "" H 9700 6200 50  0000 C CNN
	1    9700 6200
	1    0    0    -1  
$EndComp
$Comp
L PWR_FLAG #FLG05
U 1 1 598B65D2
P 9700 6050
F 0 "#FLG05" H 9700 6145 50  0001 C CNN
F 1 "PWR_FLAG" H 9700 6230 50  0000 C CNN
F 2 "" H 9700 6050 50  0000 C CNN
F 3 "" H 9700 6050 50  0000 C CNN
	1    9700 6050
	1    0    0    -1  
$EndComp
$Comp
L PWR_FLAG #FLG06
U 1 1 598B65FC
P 9300 6150
F 0 "#FLG06" H 9300 6245 50  0001 C CNN
F 1 "PWR_FLAG" H 9300 6330 50  0000 C CNN
F 2 "" H 9300 6150 50  0000 C CNN
F 3 "" H 9300 6150 50  0000 C CNN
	1    9300 6150
	-1   0    0    1   
$EndComp
Wire Wire Line
	9300 6150 9300 6000
Wire Wire Line
	9700 6200 9700 6050
$EndSCHEMATC
